\relax 
\@writefile{toc}{\thispagestyle {fancy}}
\@writefile{toc}{\pagestyle {fancy}}
\@writefile{toc}{\contentsline {section}{\numberline {1}Introduction}{2}}
\@writefile{toc}{\contentsline {section}{\numberline {2}Probl\IeC {\`e}mes et solutions}{2}}
\@writefile{toc}{\contentsline {subsubsection}{\numberline {2.0.1}Le temps}{2}}
\@writefile{toc}{\contentsline {subsubsection}{\numberline {2.0.2}Mise en commun}{2}}
\@writefile{toc}{\contentsline {subsubsection}{\numberline {2.0.3}Partage des t\^aches}{2}}
\@writefile{toc}{\contentsline {subsubsection}{\numberline {2.0.4}L'ajout d'un pair}{2}}
\@writefile{toc}{\contentsline {section}{\numberline {3}Conclusion}{2}}
\newlabel{LastPage}{{}{2}}
\xdef\lastpage@lastpage{2}
\gdef\lastpage@lastpageHy{}
