\thispagestyle {fancy}
\pagestyle {fancy}
\contentsline {section}{\numberline {1}Introduction}{2}
\contentsline {section}{\numberline {2}Probl\IeC {\`e}mes et solutions}{2}
\contentsline {subsubsection}{\numberline {2.0.1}Le temps}{2}
\contentsline {subsubsection}{\numberline {2.0.2}Mise en commun}{2}
\contentsline {subsubsection}{\numberline {2.0.3}Partage des t\^aches}{2}
\contentsline {subsubsection}{\numberline {2.0.4}L'ajout d'un pair}{2}
\contentsline {section}{\numberline {3}Conclusion}{2}
